<?xml version="1.0" encoding="UTF-8"?>
<svg width="15px" height="14px" viewBox="0 0 15 14" version="1.1" xmlns="http://www.w3.org/2000/svg" xmlns:xlink="http://www.w3.org/1999/xlink">
    <title>E2F3CB3A-5697-4BD3-9567-E96D97ED0401@3x</title>
    <g id="Page-1" stroke="none" stroke-width="1" fill="none" fill-rule="evenodd">
        <g id="v6-Key-block-Dropdown" transform="translate(-990.000000, -153.000000)" fill="#354F79">
            <g id="Group-36" transform="translate(974.000000, 134.000000)">
                <g id="excel-icon" transform="translate(16.000000, 19.000000)">
                    <path d="M12,12 L12,12.4444444 C12,13.3038889 11.284,14 10.4,14 L10.4,14 L1.6,14 C0.716,14 0,13.3038889 0,12.4444444 L0,12.4444444 L0,1.55555556 C0,0.696111111 0.716,0 1.6,0 L1.6,0 L10.4,0 C11.284,0 12,0.696111111 12,1.55555556 L12,1.55555556 L12,3 L10,3 L10,2 L2,2 L2,12 L12,12 Z" id="Combined-Shape" fill-rule="nonzero"></path>
                    <path d="M10,4 L10,7 L13,7 L13,9 L10,9 L10,12 L8,12 L8,9 L5,9 L5,7 L8,7 L8,4 L10,4 Z" id="Combined-Shape-Copy-6" transform="translate(9.000000, 8.000000) rotate(45.000000) translate(-9.000000, -8.000000) "></path>
                </g>
            </g>
        </g>
    </g>
</svg>