<?xml version="1.0" encoding="UTF-8"?>
<svg width="15px" height="17px" viewBox="0 0 15 17" version="1.1" xmlns="http://www.w3.org/2000/svg" xmlns:xlink="http://www.w3.org/1999/xlink">
    <title>B566C377-5D46-4B1D-ADD1-FC5A6BF880A7@3x</title>
    <g id="Page-1" stroke="none" stroke-width="1" fill="none" fill-rule="evenodd">
        <g id="v6-Key-block-Dropdown" transform="translate(-401.000000, -150.000000)" fill="#354F79">
            <g id="Group-36" transform="translate(388.000000, 133.000000)">
                <g id="Add-New-Key-icon" transform="translate(13.000000, 17.000000)">
                    <path d="M13.4,3 C14.284,3 15,3.69611111 15,4.55555556 L15,4.55555556 L15,15.4444444 C15,16.3038889 14.284,17 13.4,17 L13.4,17 L4.6,17 C3.716,17 3,16.3038889 3,15.4444444 L3,15.4444444 L3,10 L5,10 L5,15 L13,15 L13,5 L10,5 L10,3 Z" id="Combined-Shape" fill-rule="nonzero"></path>
                    <path d="M5,0 L5,3 L8,3 L8,5 L5,5 L5,8 L3,8 L3,5 L0,5 L0,3 L3,3 L3,0 L5,0 Z" id="Combined-Shape-Copy-6"></path>
                </g>
            </g>
        </g>
    </g>
</svg>