<?xml version="1.0" encoding="UTF-8"?>
<svg width="26px" height="26px" viewBox="0 0 26 26" version="1.1" xmlns="http://www.w3.org/2000/svg" xmlns:xlink="http://www.w3.org/1999/xlink">
    <title>D9BCB2E1-B4FE-43F7-971F-940594920D88@3x</title>
    <g id="Page-1" stroke="none" stroke-width="1" fill="none" fill-rule="evenodd">
        <g id="menu-and-icons" transform="translate(-759.000000, -456.000000)" fill="#96B4C9" fill-rule="nonzero">
            <g id="add_new_tab" transform="translate(759.000000, 456.000000)">
                <path d="M13,0 C5.8175,0 0,5.8175 0,13 C0,20.1825 5.8175,26 13,26 C20.1825,26 26,20.1825 26,13 C26,5.8175 20.1825,0 13,0 Z M18,14 L14,14 L14,18 L12,18 L12,14 L8,14 L8,12 L12,12 L12,8 L14,8 L14,12 L18,12 L18,14 Z" id="Shape"></path>
            </g>
        </g>
    </g>
</svg>