<?xml version="1.0" encoding="UTF-8"?>
<svg width="22px" height="25px" viewBox="0 0 22 25" version="1.1" xmlns="http://www.w3.org/2000/svg" xmlns:xlink="http://www.w3.org/1999/xlink">
    <title>ACB15438-8D29-4C7B-8065-6CB8CA5A1D3D@3x</title>
    <g id="Page-1" stroke="none" stroke-width="1" fill="none" fill-rule="evenodd">
        <g id="menu-and-icons" transform="translate(-761.000000, -168.000000)" fill="#96B4C9" fill-rule="nonzero">
            <polygon id="tab_All-Sites" points="782.928824 177.423801 771.961176 168 761 177.402197 761 193 768.968987 193 768.968987 184.934922 775.071147 184.934922 775.071147 193 783 193 783 177.423801"></polygon>
        </g>
    </g>
</svg>